\relax 
\@writefile{toc}{\contentsline {section}{\numberline {1}Wst\IeC {\k e}p}{4}}
\@writefile{toc}{\contentsline {subsection}{\numberline {1.1}Motywacja}{4}}
\@writefile{toc}{\contentsline {paragraph}{}{4}}
\@writefile{toc}{\contentsline {subsection}{\numberline {1.2}Cel pracy}{4}}
\@writefile{toc}{\contentsline {paragraph}{}{4}}
\@writefile{toc}{\contentsline {section}{\numberline {2}Cloud computing}{5}}
\@writefile{toc}{\contentsline {paragraph}{}{5}}
\@writefile{toc}{\contentsline {subsection}{\numberline {2.1}Mobile cloud computing}{5}}
\@writefile{toc}{\contentsline {paragraph}{}{5}}
\@writefile{toc}{\contentsline {section}{\numberline {3}Aspekty bezpiecze\IeC {\'n}stwa w chmurze obliczeniowej}{6}}
\@writefile{toc}{\contentsline {subsection}{\numberline {3.1}Warstwy bezpiecze\IeC {\'n}stwa}{6}}
\@writefile{toc}{\contentsline {subsection}{\numberline {3.2}Znane problemy bezpiecze\IeC {\'n}stwa chmury obliczeniowej}{6}}
\@writefile{toc}{\contentsline {subsection}{\numberline {3.3}Aktualne mechanizmy wykorzystywane w chmurze obliczeniowej}{7}}
\@writefile{toc}{\contentsline {subsection}{\numberline {3.4}Problemy bezpiecze\IeC {\'n}stwa w mobilnej chmurze obliczeniowej}{8}}
\@writefile{toc}{\contentsline {section}{\numberline {4}Teoria obietnic}{9}}
\@writefile{toc}{\contentsline {subsection}{\numberline {4.1}Czym jest teoria obietnic?}{9}}
\@writefile{toc}{\contentsline {subsection}{\numberline {4.2}Zarys historyczny teorii obietnic}{9}}
\@writefile{toc}{\contentsline {subsection}{\numberline {4.3}Autonomia}{9}}
\@writefile{toc}{\contentsline {subsection}{\numberline {4.4}CFEngine - teoria obietnic w praktyce}{9}}
\@writefile{lof}{\contentsline {figure}{\numberline {1}{\ignorespaces Architektura systemu}}{11}}
\@writefile{toc}{\contentsline {section}{\numberline {5}Architektura systemu}{11}}
\@writefile{toc}{\contentsline {subsection}{\numberline {5.1}U\IeC {\.z}yte technologie}{12}}
\@writefile{toc}{\contentsline {section}{\numberline {6}Opis rozwi\IeC {\k a}zania, specyfikacja}{13}}
\@writefile{toc}{\contentsline {subsection}{\numberline {6.1}Schemat dzia\IeC {\l }ania}{13}}
\@writefile{toc}{\contentsline {section}{\numberline {7}Testy}{14}}
\@writefile{toc}{\contentsline {subsection}{\numberline {7.1}Por\IeC {\'o}wnanie z A}{14}}
\@writefile{toc}{\contentsline {subsection}{\numberline {7.2}Por\IeC {\'o}wnanie z B}{14}}
\@writefile{toc}{\contentsline {section}{\numberline {8}Podsumowanie i wnioski}{15}}
\bibcite{krutz}{1}
\bibcite{marsh}{2}
\bibcite{jain}{3}
\bibcite{zissis}{4}
\@writefile{toc}{\contentsline {section}{Spis rysunk\'ow}{16}}
\@writefile{toc}{\contentsline {section}{\numberline {9}Bibliografia}{16}}
